[
  {
    "id": 1,
    "subtopic_id": 2,
    "opponent_chat_text_local": "Halo kon arek anyar yo?",
    "opponent_chat_text_indo": "Halo, kamu anak baru ya?",
    "opponent_sound_filename": "chat_1_2_1_sby",
    "self_chat_text_indo": "Iya bro, perkenalkan namaku Doni",
    "self_chat_text_local": "Iya bro, kenalno jenengku Doni",
    "self_chat_text": "Iya bro, kenalno # Doni",
    "self_sound_filename": "chat_1_2_2_sby",
    "option_a": "Jenangku",
    "option_b": "Jenengku",
    "option_c": "Jarikku",
    "option_d": "Jarene",
    "fill_1": "B",
    "fill_2": "",
    "tips": "",
    "opponent_name": "Derry",
    "opponent_status": "Teman"
  },
  {
    "id": 2,
    "subtopic_id": 2,
    "opponent_chat_text_local": "Oh aku Adit bro, gudhuk wong kene yo?",
    "opponent_chat_text_indo": "Oh aku Adit bro, bukan orang sini ya?",
    "opponent_sound_filename": "chat_1_2_3_sby",
    "self_chat_text_indo": "Aku asli dari Makassar bro",
    "self_chat_text_local": "Aku asli teko Makassar bro",
    "self_chat_text": "Aku asli # Makassar bro",
    "self_sound_filename": "chat_1_2_4_sby",
    "option_a": "Tako",
    "option_b": "Teko",
    "option_c": "Tuku",
    "option_d": "Takon",
    "fill_1": "B",
    "fill_2": "",
    "tips": "",
    "opponent_name": "Derry",
    "opponent_status": "Teman"
  },
  {
    "id": 3,
    "subtopic_id": 2,
    "opponent_chat_text_local": "Oh ngono, pantesan ae",
    "opponent_chat_text_indo": "Oh gitu, pantasan aja",
    "opponent_sound_filename": "chat_1_2_5_sby",
    "self_chat_text_indo": "Kamu asalnya dari mana bro?",
    "self_chat_text_local": "Kon asline teko endi bro?",
    "self_chat_text": "# asline teko # bro?",
    "self_sound_filename": "chat_1_2_6_sby",
    "option_a": "Kon",
    "option_b": "Awakdewe",
    "option_c": "Endi",
    "option_d": "Konco",
    "fill_1": "A",
    "fill_2": "C",
    "tips": "",
    "opponent_name": "Derry",
    "opponent_status": "Teman"
  },
  {
    "id": 4,
    "subtopic_id": 2,
    "opponent_chat_text_local": "Oh aku asli Suroboyo kok",
    "opponent_chat_text_indo": "Oh saya berasal dari Surabaya kok",
    "opponent_sound_filename": "chat_1_2_7_sby",
    "self_chat_text_indo": "Kalau saya tanya tentang daerah sini gak apa apa bro?",
    "self_chat_text_local": "Nek aku takok tentang daerah kene gapopo yo bro?",
    "self_chat_text": "# aku # tentang daerah kene gapopo yo bro?",
    "self_sound_filename": "chat_1_2_8_sby",
    "option_a": "Nek",
    "option_b": "Ndek",
    "option_c": "Tuku",
    "option_d": "Takok",
    "fill_1": "A",
    "fill_2": "D",
    "tips": "",
    "opponent_name": "Derry",
    "opponent_status": "Teman"
  },
  {
    "id": 5,
    "subtopic_id": 2,
    "opponent_chat_text_local": "Gapopo bro, monggo",
    "opponent_chat_text_indo": "Gak apa apa bro, silahkan",
    "opponent_sound_filename": "chat_1_2_9_sby",
    "self_chat_text_indo": "Terima kasih bro",
    "self_chat_text_local": "Suwun bro",
    "self_chat_text": "# bro",
    "self_sound_filename": "chat_1_2_10_sby",
    "option_a": "Sowan",
    "option_b": "Sawan",
    "option_c": "Suwun",
    "option_d": "Sewu",
    "fill_1": "C",
    "fill_2": "",
    "tips": "",
    "opponent_name": "Derry",
    "opponent_status": "Teman"
  },
  {
    "id": 6,
    "subtopic_id": 5,
    "opponent_chat_text_local": "Halo dek, opo'o kok ketok bingung?",
    "opponent_chat_text_indo": "Halo dek, kenapa kok kelihatan bingung?",
    "opponent_sound_filename": "chat_2_2_1_sby",
    "self_chat_text_indo": "Permisi kak, mau tanya",
    "self_chat_text_local": "Nuwun sewu mbak, aku apene takok",
    "self_chat_text": "Nuwun sewu mbak, aku # takok",
    "self_sound_filename": "chat_2_2_2_sby",
    "option_a": "Nuwun",
    "option_b": "Areke",
    "option_c": "Apene",
    "option_d": "Adus",
    "fill_1": "C",
    "fill_2": "",
    "tips": "",
    "opponent_name": "Mbak Ernie",
    "opponent_status": "Mbak Kos"
  },
  {
    "id": 7,
    "subtopic_id": 5,
    "opponent_chat_text_local": "Oh iyo monggo, apene takok opo?",
    "opponent_chat_text_indo": "Oh iya silahkan, mau tanya apa?",
    "opponent_sound_filename": "chat_2_2_3_sby",
    "self_chat_text_indo": "Kalau mau cari makan di dekat kosan sini, dimana ya?",
    "self_chat_text_local": "Nek arep golek mangan cedek kosan kene, nangndi yo?",
    "self_chat_text": "Nek arep # mangan # kosan kene, nangndi yo?",
    "self_sound_filename": "chat_2_2_4_sby",
    "option_a": "Golek",
    "option_b": "Gowo",
    "option_c": "Cedek",
    "option_d": "Cacak",
    "fill_1": "A",
    "fill_2": "C",
    "tips": "",
    "opponent_name": "Mbak Ernie",
    "opponent_status": "Mbak Kos"
  },
  {
    "id": 8,
    "subtopic_id": 5,
    "opponent_chat_text_local": "Wah, akeh sing dodol cedek kene, ngarep kos iki dodol sego goreng, sebelahe dodol ayam geprek",
    "opponent_chat_text_indo": "Wah banyak yang jual dekat sini, depan kos ini jual nasi goreng, sebelahnya jual ayam geprek",
    "opponent_sound_filename": "chat_2_2_5_sby",
    "self_chat_text_indo": "Ooh, harganya nasi goreng berapa ya kak?",
    "self_chat_text_local": "Ooh, regone sego goreng piro yo mbak?",
    "self_chat_text": "Ooh, # ne sego goreng piro yo mbak?",
    "self_sound_filename": "chat_2_2_6_sby",
    "option_a": "Ragu",
    "option_b": "Rego",
    "option_c": "Tuku",
    "option_d": "Piro",
    "fill_1": "B",
    "fill_2": "",
    "tips": "",
    "opponent_name": "Mbak Ernie",
    "opponent_status": "Mbak Kos"
  },
  {
    "id": 9,
    "subtopic_id": 5,
    "opponent_chat_text_local": "Sak porsi biasane limolas ewu",
    "opponent_chat_text_indo": "Satu porsi biasanya lima belas ribu",
    "opponent_sound_filename": "chat_2_2_7_sby",
    "self_chat_text_indo": "Oh, kalau ayam gepreknya berapa ya kak  harganya?",
    "self_chat_text_local": "Oh, nek ayam geprek e piro yo mbak regone?",
    "self_chat_text": "Ooh, nek ayam geprek e # yo mbak regone?",
    "self_sound_filename": "chat_2_2_8_sby",
    "option_a": "Piro",
    "option_b": "Tuku",
    "option_c": "Sewu",
    "option_d": "Sopo",
    "fill_1": "A",
    "fill_2": "",
    "tips": "",
    "opponent_name": "Mbak Ernie",
    "opponent_status": "Mbak Kos"
  },
  {
    "id": 10,
    "subtopic_id": 5,
    "opponent_chat_text_local": "Podo seh, kabeh rata-rata limolas ewuan",
    "opponent_chat_text_indo": "Sama sih, semua rata-rata lima belas ribuan",
    "opponent_sound_filename": "chat_2_2_9_sby",
    "self_chat_text_indo": "Terima kasih kak, saya beli dulu di sebelah",
    "self_chat_text_local": "Suwun mbak, aku tak tuku nang sebelah",
    "self_chat_text": "Suwun mbak, aku tak # nang sebelah",
    "self_sound_filename": "chat_2_2_10_sby",
    "option_a": "Tuku",
    "option_b": "Turu",
    "option_c": "Telu",
    "option_d": "Teko",
    "fill_1": "A",
    "fill_2": "",
    "tips": "",
    "opponent_name": "Mbak Ernie",
    "opponent_status": "Mbak Kos"
  },
  {
    "id": 11,
    "subtopic_id": 8,
    "opponent_chat_text_local": "Bro! bosen rasane, ayo cangkruk",
    "opponent_chat_text_indo": "Bro! bosen rasanya, ayo nongkrong",
    "opponent_sound_filename": "chat_3_2_1_sby",
    "self_chat_text_indo": "Iya sama aku juga, ayo nongkrong kemana?",
    "self_chat_text_local": "Iyo podo aku sisan, ayo cangkruk, nangndi?",
    "self_chat_text": "Iyo podo aku # , ayo # , nangndi?",
    "self_sound_filename": "chat_3_2_2_sby",
    "option_a": "Sisan",
    "option_b": "Maneh",
    "option_c": "Cangkruk",
    "option_d": "Takok",
    "fill_1": "A",
    "fill_2": "C",
    "tips": "",
    "opponent_name": "Doni",
    "opponent_status": "Teman"
  },
  {
    "id": 12,
    "subtopic_id": 8,
    "opponent_chat_text_local": "Nang kafe cedek kene ae tah?",
    "opponent_chat_text_indo": "Mau kafe yang di dekat sini aja?",
    "opponent_sound_filename": "chat_3_2_3_sby",
    "self_chat_text_indo": "Boleh nih, tapi aku belum tau banyak kafe",
    "self_chat_text_local": "Gakpopo, tapi aku durung eroh akeh kafe",
    "self_chat_text": "Gakpopo, tapi Aku # eroh # kafe",
    "self_sound_filename": "chat_3_2_4_sby",
    "option_a": "Dungo",
    "option_b": "Durung",
    "option_c": "Akur",
    "option_d": "Akeh",
    "fill_1": "B",
    "fill_2": "D",
    "tips": "",
    "opponent_name": "Doni",
    "opponent_status": "Teman"
  },
  {
    "id": 13,
    "subtopic_id": 8,
    "opponent_chat_text_local": "Santai wae bro hahaha",
    "opponent_chat_text_indo": "Santai aja bro hahaha",
    "opponent_sound_filename": "chat_3_2_5_sby",
    "self_chat_text_indo": "Ada kafe apa saja dekat sini?",
    "self_chat_text_local": "Onok kafe opo ae cedek kene?",
    "self_chat_text": "Onok kafe opo ae # kene?",
    "self_sound_filename": "chat_3_2_6_sby",
    "option_a": "Budhal",
    "option_b": "Cedek",
    "option_c": "Kene",
    "option_d": "Kono",
    "fill_1": "B",
    "fill_2": "",
    "tips": "",
    "opponent_name": "Doni",
    "opponent_status": "Teman"
  },
  {
    "id": 14,
    "subtopic_id": 8,
    "opponent_chat_text_local": "Onok kafe Jokopi, iku panggon ngopi langgananku",
    "opponent_chat_text_indo": "Ada kafe Jokopi, disitu tempat ngopi langgananku.",
    "opponent_sound_filename": "chat_3_2_7_sby",
    "self_chat_text_indo": "Terus ada apa lagi?",
    "self_chat_text_local": "Terus onok opo maneh?",
    "self_chat_text": "Terus # opo # ?",
    "self_sound_filename": "chat_3_2_8_sby",
    "option_a": "Onok",
    "option_b": "Panggon",
    "option_c": "Minah",
    "option_d": "Maneh",
    "fill_1": "A",
    "fill_2": "D",
    "tips": "",
    "opponent_name": "Doni",
    "opponent_status": "Teman"
  },
  {
    "id": 15,
    "subtopic_id": 8,
    "opponent_chat_text_local": "Onok sisan kafe Janji Jiwa, iku sek tas buka",
    "opponent_chat_text_indo": "Ada juga kafe Janji Jiwa, itu kafe baru buka.",
    "opponent_sound_filename": "chat_3_2_9_sby",
    "self_chat_text_indo": "Oh gitu ya, kalau coba kafe yang baru saja buka bagaimana?",
    "self_chat_text_local": "Oh ngono yo, nek coba kafe sing sek tas buka yaopo?",
    "self_chat_text": "Oh ngono yo, nek coba kafe sing sek tas buka # ?",
    "self_sound_filename": "chat_3_2_10_sby",
    "option_a": "Sek tas",
    "option_b": "Sek",
    "option_c": "Yaopo",
    "option_d": "Yoiku",
    "fill_1": "C",
    "fill_2": "",
    "tips": "Persamaan kata selain “Yaopo” adalah kata “Piye” yang memiliki arti sama yaitu “Bagaimana”",
    "opponent_name": "Doni",
    "opponent_status": "Teman"
  },
  {
    "id": 16,
    "subtopic_id": 8,
    "opponent_chat_text_local": "Oke wes, ayo budhal",
    "opponent_chat_text_indo": "Oke deh, yuk berangkat.",
    "opponent_sound_filename": "chat_3_2_11_sby",
    "self_chat_text_indo": "",
    "self_chat_text_local": "",
    "self_chat_text": "",
    "self_sound_filename": "",
    "option_a": "",
    "option_b": "",
    "option_c": "",
    "option_d": "",
    "fill_1": "",
    "fill_2": "",
    "tips": "",
    "opponent_name": "Doni",
    "opponent_status": "Teman"
  },
  {
    "id": 17,
    "subtopic_id": 11,
    "opponent_chat_text_local": "Eh Dina, tugas akuntansine kelompokan yo?",
    "opponent_chat_text_indo": "Eh Dina, tugas akuntansinya berkelompok ya?",
    "opponent_sound_filename": "chat_4_2_1_sby",
    "self_chat_text_indo": "Iya benar Sis, kamu sudah dapat kelompok kah untuk tugas akuntansi?",
    "self_chat_text_local": "Iyo bener Sis, awakmu wes entuk kelompok ta gawe tugas akuntansi?",
    "self_chat_text": "Iyo bener Sis, awakmu wes # kelompok ta # tugas akuntansi?",
    "self_sound_filename": "chat_4_2_2_sby",
    "option_a": "Antuk",
    "option_b": "Entuk",
    "option_c": "Gowo",
    "option_d": "Gawe",
    "fill_1": "B",
    "fill_2": "D",
    "tips": "Persamaan kata selain “Entuk” adalah kata “Oleh” yang memiliki arti sama yaitu “Dapat”",
    "opponent_name": "Siska",
    "opponent_status": "Teman Kelas"
  },
  {
    "id": 18,
    "subtopic_id": 11,
    "opponent_chat_text_local": "Durung Din, kon?",
    "opponent_chat_text_indo": "Belum Din, kamu?",
    "opponent_sound_filename": "chat_4_2_3_sby",
    "self_chat_text_indo": "Kelompokku belum lengkap. Kalau begitu, bagaimana kalau kita jadi sekelompok saja?",
    "self_chat_text_local": "Kelompokku durung lengkap. Nek ngono, piye nek kene dadi sak kelompok?",
    "self_chat_text": "Kelompokku durung lengkap. Nek # , piye nek kene # sak kelompok?",
    "self_sound_filename": "chat_4_2_4_sby",
    "option_a": "Ngono",
    "option_b": "Mengko",
    "option_c": "Ngene",
    "option_d": "Dadi",
    "fill_1": "A",
    "fill_2": "D",
    "tips": "",
    "opponent_name": "Siska",
    "opponent_status": "Teman Kelas"
  },
  {
    "id": 19,
    "subtopic_id": 11,
    "opponent_chat_text_local": "Boleh, sak kelompok lak uwong papat yo?",
    "opponent_chat_text_indo": "Boleh, satu kelompok kan berempat ya?",
    "opponent_sound_filename": "chat_4_2_5_sby",
    "self_chat_text_indo": "Benar Sis, aku udah ajak dua teman sih, Adit dan Doni",
    "self_chat_text_local": "Bener Sis, aku wes ngajak arek loro seh, Adit karo Doni",
    "self_chat_text": "Bener Sis, aku wes ngajak arek # seh, Adit # Doni",
    "self_sound_filename": "chat_4_2_6_sby",
    "option_a": "Siji",
    "option_b": "Loro",
    "option_c": "Karo",
    "option_d": "Telu",
    "fill_1": "B",
    "fill_2": "C",
    "tips": "",
    "opponent_name": "Siska",
    "opponent_status": "Teman Kelas"
  },
  {
    "id": 20,
    "subtopic_id": 11,
    "opponent_chat_text_local": "Wah tepak iku, dadi wes pas yo",
    "opponent_chat_text_indo": "Wah boleh itu, jadi udah pas ya",
    "opponent_sound_filename": "chat_4_2_7_sby",
    "self_chat_text_indo": "Iya udah pas nih. Eh kita mau mengerjakan tugasnya kapan ya enaknya?",
    "self_chat_text_local": "Iyo wes pas. Eh kene apene nggarap tugas e kapan yo enake?",
    "self_chat_text": "Iyo wes pas. Eh kene # nggarap tugas e kapan yo enake?",
    "self_sound_filename": "chat_4_2_8_sby",
    "option_a": "Apene",
    "option_b": "Anggite",
    "option_c": "Ngenteni",
    "option_d": "Nggarap",
    "fill_1": "A",
    "fill_2": "",
    "tips": "",
    "opponent_name": "Siska",
    "opponent_status": "Teman Kelas"
  },
  {
    "id": 21,
    "subtopic_id": 11,
    "opponent_chat_text_local": "Ooh oke, sesok sore yaopo? Aku kosong",
    "opponent_chat_text_indo": "Ooh oke, besok sore gimana? Aku kosong",
    "opponent_sound_filename": "chat_4_2_9_sby",
    "self_chat_text_indo": "Besok sore ya? Aku bisa kok",
    "self_chat_text_local": "Sesok sore yo? Aku isok kok",
    "self_chat_text": "Sesok sore yo? Aku # kok",
    "self_sound_filename": "chat_4_2_10_sby",
    "option_a": "Isuk",
    "option_b": "Susuk",
    "option_c": "Sesok",
    "option_d": "Isok",
    "fill_1": "D",
    "fill_2": "",
    "tips": "",
    "opponent_name": "Siska",
    "opponent_status": "Teman Kelas"
  },
  {
    "id": 22,
    "subtopic_id": 11,
    "opponent_chat_text_local": "Oke, sampe ketemu sesok sore yo",
    "opponent_chat_text_indo": "Oke, sampai bertemu besok sore ya",
    "opponent_sound_filename": "chat_4_2_11_sby",
    "self_chat_text_indo": "",
    "self_chat_text_local": "",
    "self_chat_text": "",
    "self_sound_filename": "",
    "option_a": "",
    "option_b": "",
    "option_c": "",
    "option_d": "",
    "fill_1": "",
    "fill_2": "",
    "tips": "",
    "opponent_name": "Siska",
    "opponent_status": "Teman Kelas"
  },
  {
    "id": 23,
    "subtopic_id": 14,
    "opponent_chat_text_local": "Halo Sis! Lagi opo saiki?",
    "opponent_chat_text_indo": "Halo Sis! Lagi apa sekarang?",
    "opponent_sound_filename": "chat_5_2_1_sby",
    "self_chat_text_indo": "Sekarang lagi di kos aja nih",
    "self_chat_text_local": "Saiki nang kos ae sih",
    "self_chat_text": "# nang kos ae sih",
    "self_sound_filename": "chat_5_2_2_sby",
    "option_a": "Sesok",
    "option_b": "Saiki",
    "option_c": "Wingi",
    "option_d": "Ketmau",
    "fill_1": "B",
    "fill_2": "",
    "tips": "",
    "opponent_name": "Dina",
    "opponent_status": "Teman"
  },
  {
    "id": 24,
    "subtopic_id": 14,
    "opponent_chat_text_local": "Preian apene nangndi?",
    "opponent_chat_text_indo": "Liburan mau kemana?",
    "opponent_sound_filename": "chat_5_2_3_sby",
    "self_chat_text_indo": "Liburan ini belum ada rencana nih, kamu akan pergi kemana?",
    "self_chat_text_local": "Preian iki durung onok rencana, awakmu arepe lungo nangndi?",
    "self_chat_text": "# iki durung onok rencana, awakmu arepe lungo # ?",
    "self_sound_filename": "chat_5_2_4_sby",
    "option_a": "Preian",
    "option_b": "Lungo",
    "option_c": "Nang kene",
    "option_d": "Nangndi",
    "fill_1": "A",
    "fill_2": "D",
    "tips": "",
    "opponent_name": "Dina",
    "opponent_status": "Teman"
  },
  {
    "id": 25,
    "subtopic_id": 14,
    "opponent_chat_text_local": "Aku arep lungo nang pantai nang daerah Jogja sih, tapi durung onok koncone",
    "opponent_chat_text_indo": "Aku akan pergi ke pantai di daerah Jogja sih, tapi belum ada temennya",
    "opponent_sound_filename": "chat_5_2_5_sby",
    "self_chat_text_indo": "Kapan kamu berangkat ke pantai?",
    "self_chat_text_local": "Kapan kon budhal nang pantai?",
    "self_chat_text": "Kapan kon # nang pantai?",
    "self_sound_filename": "chat_5_2_6_sby",
    "option_a": "Teko",
    "option_b": "Numpak",
    "option_c": "Budhal",
    "option_d": "Munggah",
    "fill_1": "C",
    "fill_2": "",
    "tips": "",
    "opponent_name": "Dina",
    "opponent_status": "Teman"
  },
  {
    "id": 26,
    "subtopic_id": 14,
    "opponent_chat_text_local": "Minggu ngarep aku budhal, awakmu gelem melok?",
    "opponent_chat_text_indo": "Minggu depan aku berangkat, kamu mau ikut?",
    "opponent_sound_filename": "chat_5_2_7_sby",
    "self_chat_text_indo": "Oke sih, tapi kalau aku mau ajak temenku bagaimana?",
    "self_chat_text_local": "Oke sih, tapi nek aku ngajak koncoku  piye?",
    "self_chat_text": "Oke sih, tapi # aku ngajak koncoku # ?",
    "self_sound_filename": "chat_5_2_8_sby",
    "option_a": "Nak",
    "option_b": "Nek",
    "option_c": "Nangndi",
    "option_d": "Piye",
    "fill_1": "B",
    "fill_2": "D",
    "tips": "",
    "opponent_name": "Dina",
    "opponent_status": "Teman"
  },
  {
    "id": 27,
    "subtopic_id": 14,
    "opponent_chat_text_local": "Iyo gakpopo, sesok kabari yo",
    "opponent_chat_text_indo": "Iya gak papa, besok kabari ya",
    "opponent_sound_filename": "chat_5_2_9_sby",
    "self_chat_text_indo": "Oke, besok kalau jadi aku kabari",
    "self_chat_text_local": "Oke, sesok nek sido tak kabari",
    "self_chat_text": "Oke, sesok nek # tak kabari",
    "self_sound_filename": "chat_5_2_10_sby",
    "option_a": "Sido",
    "option_b": "Saiki",
    "option_c": "Dino",
    "option_d": "Luwih",
    "fill_1": "A",
    "fill_2": "",
    "tips": "Kata “Luwih” terdapat persamaan kata lainnya yang hampir mirip dalam pengucapannya yaitu kata “Luwe” yang memiliki arti “Lapar”",
    "opponent_name": "Dina",
    "opponent_status": "Teman"
  },
  {
    "id": 28,
    "subtopic_id": 17,
    "opponent_chat_text_local": "Dino sabtu sibuk gak Don?",
    "opponent_chat_text_indo": "Hari sabtu sibuk gak Don?",
    "opponent_sound_filename": "chat_6_2_1_sby",
    "self_chat_text_indo": "Gak sih, belum ada kegiatan nih, emangnya kenapa?",
    "self_chat_text_local": "Gak sih, durung ono kegiatan, lapo’o emange?",
    "self_chat_text": "Gak sih, # ono kegiatan, lapo’o emange?",
    "self_sound_filename": "chat_6_2_2_sby",
    "option_a": "Dulang",
    "option_b": "Durung",
    "option_c": "Dungo",
    "option_d": "Dhahar",
    "fill_1": "B",
    "fill_2": "",
    "tips": "",
    "opponent_name": "Lukman",
    "opponent_status": "Teman"
  },
  {
    "id": 29,
    "subtopic_id": 17,
    "opponent_chat_text_local": "Rencana aku karo arek-arek apene dulin futsal, nang daerah Kertajaya",
    "opponent_chat_text_indo": "Rencana aku dan temen-temen mau main futsal, didaerah Kertajaya",
    "opponent_sound_filename": "chat_6_2_3_sby",
    "self_chat_text_indo": "kurang berapa orang yang ikut?",
    "self_chat_text_local": "Kurang uwong piro sing melok?",
    "self_chat_text": "Kurang uwong piro sing # ?",
    "self_sound_filename": "chat_6_2_4_sby",
    "option_a": "Melok",
    "option_b": "Malak",
    "option_c": "Moleh",
    "option_d": "Molek",
    "fill_1": "A",
    "fill_2": "",
    "tips": "",
    "opponent_name": "Lukman",
    "opponent_status": "Teman"
  },
  {
    "id": 30,
    "subtopic_id": 17,
    "opponent_chat_text_local": "Kurang wong siji, kene wes nyewo panggon gawe dulin sabtu sesok",
    "opponent_chat_text_indo": "Kurang satu orang, kita udah sewa tempat buat main besok sabtu",
    "opponent_sound_filename": "chat_6_2_5_sby",
    "self_chat_text_indo": "Aku ikut ya, sudah jarang olahraga sekarang, badanku kaku semua",
    "self_chat_text_local": "Aku melok yo, wes jarang olahraga saiki, awakku kaku kabeh",
    "self_chat_text": "Aku melok yo, # jarang olahraga saiki, # kaku kabeh",
    "self_sound_filename": "chat_6_2_6_sby",
    "option_a": "Wes",
    "option_b": "Sek",
    "option_c": "Awakku",
    "option_d": "Awakmu",
    "fill_1": "A",
    "fill_2": "C",
    "tips": "",
    "opponent_name": "Lukman",
    "opponent_status": "Teman"
  },
  {
    "id": 31,
    "subtopic_id": 17,
    "opponent_chat_text_local": "Oke, sesok kene budhal jam 7 bengi yo",
    "opponent_chat_text_indo": "Besok kita berangkat jam 7 malam ya",
    "opponent_sound_filename": "chat_6_2_7_sby",
    "self_chat_text_indo": "Tapi aku gak ada motor buat kesana Man, boleh bareng gak?",
    "self_chat_text_local": "Tapi aku gak onok motor gawe nang kono Man, oleh bareng gak?",
    "self_chat_text": "Tapi aku gak onok motor # nang kono Man, # bareng gak?",
    "self_sound_filename": "chat_6_2_8_sby",
    "option_a": "Oleh",
    "option_b": "Onok",
    "option_c": "Gawe",
    "option_d": "Sewo",
    "fill_1": "C",
    "fill_2": "A",
    "tips": "",
    "opponent_name": "Lukman",
    "opponent_status": "Teman"
  },
  {
    "id": 32,
    "subtopic_id": 17,
    "opponent_chat_text_local": "Iyo sesok bareng aku ae",
    "opponent_chat_text_indo": "Besok bareng aku aja",
    "opponent_sound_filename": "chat_6_2_9_sby",
    "self_chat_text_indo": "Oke terima kasih Dit, aku cari sepatu dulu buat besok",
    "self_chat_text_local": "Oke suwun Dit, aku tak golek sepatu sek gawe sesok.",
    "self_chat_text": "Oke suwun Dit, aku tak # sepatu sek gawe #",
    "self_sound_filename": "chat_6_2_10_sby",
    "option_a": "Gowo",
    "option_b": "Golek",
    "option_c": "Sesok",
    "option_d": "Isuk",
    "fill_1": "B",
    "fill_2": "C",
    "tips": "",
    "opponent_name": "Lukman",
    "opponent_status": "Teman"
  }
]
