[
  {
    "id": 1,
    "subtopic_id": 3,
    "question": "Dari manakah Doni berasal?",
    "option_a": "Surabaya",
    "option_b": "Bandung",
    "option_c": "Malang",
    "option_d": "Makassar",
    "answer": "D"
  },
  {
    "id": 2,
    "subtopic_id": 3,
    "question": "Kapan Doni tiba di Makassar?",
    "option_a": "Minggu depan",
    "option_b": "Kemarin",
    "option_c": "Hari ini",
    "option_d": "Besok",
    "answer": "B"
  },
  {
    "id": 3,
    "subtopic_id": 3,
    "question": "Apa yang di cari oleh Doni?",
    "option_a": "Makan",
    "option_b": "Pacar",
    "option_c": "Tempat kos",
    "option_d": "Uang",
    "answer": "C"
  },
  {
    "id": 4,
    "subtopic_id": 3,
    "question": "Dimana kos-kosan yang di rekomendasikan oleh Derry?",
    "option_a": "Di sebelah kampus",
    "option_b": "Di belakang kampus",
    "option_c": "Di depan kampus",
    "option_d": "Jauh dari kampus",
    "answer": "C"
  },
  {
    "id": 5,
    "subtopic_id": 3,
    "question": "Dari manakah Adit berasal?",
    "option_a": "Malang",
    "option_b": "Surabaya",
    "option_c": "Bandung",
    "option_d": "Makassar",
    "answer": "B"
  },
  {
    "id": 6,
    "subtopic_id": 6,
    "question": "Dengan siapa kah Doni berbincang?",
    "option_a": "Penjual alat Makan",
    "option_b": "Penjual makanan",
    "option_c": "Penjual otomotif",
    "option_d": "Penjual obat",
    "answer": "B"
  },
  {
    "id": 7,
    "subtopic_id": 6,
    "question": "Apa yang di cari oleh Doni awalnya?",
    "option_a": "Mie goreng",
    "option_b": "Nasi goreng",
    "option_c": "Ayam geprek",
    "option_d": "Ikan bakar",
    "answer": "B"
  },
  {
    "id": 8,
    "subtopic_id": 6,
    "question": "Berapa harga mie goreng yang di jual oleh sang penjual makanan?",
    "option_a": "Lima belas ribu",
    "option_b": "Dua puluh ribu",
    "option_c": "Dua puluh lima ribu",
    "option_d": "Sepuluh ribu",
    "answer": "A"
  },
  {
    "id": 9,
    "subtopic_id": 6,
    "question": "Makanan apa yang akhirnya di beli oleh Doni?",
    "option_a": "Mie Goreng",
    "option_b": "Nasi Goreng",
    "option_c": "Ayam Geprek",
    "option_d": "Ikan Bakar",
    "answer": "C"
  },
  {
    "id": 10,
    "subtopic_id": 6,
    "question": "Berapa porsi yang di beli oleh Doni?",
    "option_a": "Satu",
    "option_b": "Dua",
    "option_c": "Tiga",
    "option_d": "Empat",
    "answer": "A"
  },
  {
    "id": 11,
    "subtopic_id": 9,
    "question": "Dimana mereka nongkrong?",
    "option_a": "Kafe dekat kampus",
    "option_b": "Kafe dekat kos",
    "option_c": "Kafe dekat rumah",
    "option_d": "Kafe jauh dari kampus",
    "answer": "A"
  },
  {
    "id": 12,
    "subtopic_id": 9,
    "question": "Bagaimana kondisi kafe tersebut?",
    "option_a": "Tenang dan luas",
    "option_b": "Ramai dan sempit",
    "option_c": "Bagus dan luas",
    "option_d": "Bagus dan ramai",
    "answer": "C"
  },
  {
    "id": 13,
    "subtopic_id": 9,
    "question": "Bagaimana cara Doni mengetahui password wifi?",
    "option_a": "Melihat kode di meja",
    "option_b": "Melihat kode di buku menu",
    "option_c": "Melihat kode di dinding",
    "option_d": "Bertanya kepada pegawai kafe",
    "answer": "D"
  },
  {
    "id": 14,
    "subtopic_id": 9,
    "question": "Apa yang dilakukan mereka sebelum memesan minuman?",
    "option_a": "Bertanya menu favorit ke pegawai kafe",
    "option_b": "Membaca buku menu",
    "option_c": "Membaca promo yang ada",
    "option_d": "Melihat menu favorit",
    "answer": "B"
  },
  {
    "id": 15,
    "subtopic_id": 9,
    "question": "Minuman apa yang mereka pesan?",
    "option_a": "Es kopi susu dan es teh",
    "option_b": "Es teh dan kopi susu panas",
    "option_c": "Es teh dan jus stroberi",
    "option_d": "Es kopi susu dan jus stroberi",
    "answer": "D"
  },
  {
    "id": 16,
    "subtopic_id": 12,
    "question": "Kapan mereka mengerjakan tugas?",
    "option_a": "Siang, sebelum kelas",
    "option_b": "Siang, sesudah kelas",
    "option_c": "Sore, selesai kelas",
    "option_d": "Sore, Sebelum kelas",
    "answer": "C"
  },
  {
    "id": 17,
    "subtopic_id": 12,
    "question": "Dimana mereka mengerjakan tugas?",
    "option_a": "Perpustakaan",
    "option_b": "Laboratorium",
    "option_c": "Kantin",
    "option_d": "Kafe",
    "answer": "A"
  },
  {
    "id": 18,
    "subtopic_id": 12,
    "question": "Bagaimana cara mereka membagi tugas?",
    "option_a": "Memilih secara acak",
    "option_b": "Memilih sendiri - sendiri",
    "option_c": "Dipilihkan Oleh Siska",
    "option_d": "Dipilihkan Oleh Dina",
    "answer": "B"
  },
  {
    "id": 19,
    "subtopic_id": 12,
    "question": "Ada berapa soal yang harus mereka kerjakan?",
    "option_a": "Dua",
    "option_b": "Tiga",
    "option_c": "Empat",
    "option_d": "Lima",
    "answer": "D"
  },
  {
    "id": 20,
    "subtopic_id": 12,
    "question": "Siapa yang pintar mata kuliah akuntansi?",
    "option_a": "Dina",
    "option_b": "Doni",
    "option_c": "Siska",
    "option_d": "Adit",
    "answer": "C"
  },
  {
    "id": 21,
    "subtopic_id": 15,
    "question": "Siapa yang pergi ke Jogja?",
    "option_a": "Dina",
    "option_b": "Doni",
    "option_c": "Dina dan Doni",
    "option_d": "Andi dan Doni",
    "answer": "C"
  },
  {
    "id": 22,
    "subtopic_id": 15,
    "question": "Siapa yang pergi ke Jogja naik sepeda motor?",
    "option_a": "Andi",
    "option_b": "Dani",
    "option_c": "Dina",
    "option_d": "Doni",
    "answer": "D"
  },
  {
    "id": 23,
    "subtopic_id": 15,
    "question": "Apa alasan Dina jarang naik motor?",
    "option_a": "Panas",
    "option_b": "Lebih Mahal",
    "option_c": "Pernah Jatuh",
    "option_d": "Tidak Punya Motor",
    "answer": "C"
  },
  {
    "id": 24,
    "subtopic_id": 15,
    "question": "Kapan Doni berangkat ke Jogja?",
    "option_a": "Senin",
    "option_b": "Minggu",
    "option_c": "Kamis",
    "option_d": "Sabtu",
    "answer": "B"
  },
  {
    "id": 25,
    "subtopic_id": 15,
    "question": "Bersama siapa Doni pergi ke Jogja?",
    "option_a": "Teman kerja",
    "option_b": "Teman Kelas",
    "option_c": "Teman Kuliah",
    "option_d": "Temen Kos",
    "answer": "A"
  },
  {
    "id": 26,
    "subtopic_id": 18,
    "question": "Siapa yang ikut pertandingan sepakbola?",
    "option_a": "Lukman dan Doni",
    "option_b": "Lukman, Doni dan Indra",
    "option_c": "Doni, Indra dan Andi",
    "option_d": "Adit, Doni, Indra dan Andi",
    "answer": "D"
  },
  {
    "id": 27,
    "subtopic_id": 18,
    "question": "Siapa yang masukan goal dalam pertandingan sepakbola?",
    "option_a": "Lukman",
    "option_b": "Indra",
    "option_c": "Doni",
    "option_d": "Andi",
    "answer": "C"
  },
  {
    "id": 28,
    "subtopic_id": 18,
    "question": "Apa yang Andi dan Indra alami?",
    "option_a": "Bangun",
    "option_b": "Jatuh",
    "option_c": "Berlari",
    "option_d": "Pingsan",
    "answer": "B"
  },
  {
    "id": 29,
    "subtopic_id": 18,
    "question": "Kapan mereka merencanakan untuk barmain sepakbola lagi?",
    "option_a": "Besok",
    "option_b": "Minggu ini",
    "option_c": "Minggu Depan",
    "option_d": "Bulan Depan",
    "answer": "C"
  },
  {
    "id": 30,
    "subtopic_id": 18,
    "question": "Bagaimana hasil pertandingannya?",
    "option_a": "Menang",
    "option_b": "Kalau",
    "option_c": "Seri",
    "option_d": "Batal",
    "answer": "A"
  }
]
