[
  {
    "id": 1,
    "subtopic_id": 1,
    "question": "Apa bahasa Surabaya dari “Nama”?",
    "option_a": "Jenang",
    "option_b": "Jeneng",
    "option_c": "Jadul",
    "option_d": "Jarik",
    "answer": "B",
    "tips": "",
    "clue_sound_filename": "nama_sby"
  },
  {
    "id": 2,
    "subtopic_id": 1,
    "question": "Apa bahasa Surabaya dari “Siapa”?",
    "option_a": "Sapu",
    "option_b": "Sipu",
    "option_c": "Sopo",
    "option_d": "Soko",
    "answer": "C",
    "tips": "",
    "clue_sound_filename": "siapa_sby"
  },
  {
    "id": 3,
    "subtopic_id": 1,
    "question": "Apa bahasa Surabaya dari “Kalau”?",
    "option_a": "Nak",
    "option_b": "Nik",
    "option_c": "Nuk",
    "option_d": "Nek",
    "answer": "D",
    "tips": "",
    "clue_sound_filename": "kalau_sby"
  },
  {
    "id": 4,
    "subtopic_id": 1,
    "question": "Apa bahasa Surabaya dari “Tanya”?",
    "option_a": "Tukang",
    "option_b": "Tikung",
    "option_c": "Takok",
    "option_d": "Tokek",
    "answer": "C",
    "tips": "",
    "clue_sound_filename": "tanya_sby"
  },
  {
    "id": 5,
    "subtopic_id": 1,
    "question": "Apa bahasa Surabaya dari “Kamu”?",
    "option_a": "Kan",
    "option_b": "Kon",
    "option_c": "Kun",
    "option_d": "Kau",
    "answer": "B",
    "tips": "",
    "clue_sound_filename": "kamu_sby"
  },
  {
    "id": 6,
    "subtopic_id": 1,
    "question": "Apa bahasa Surabaya dari “Dari”?",
    "option_a": "Teko",
    "option_b": "Tuku",
    "option_c": "Takon",
    "option_d": "Tamu",
    "answer": "A",
    "tips": "",
    "clue_sound_filename": "dari_sby"
  },
  {
    "id": 7,
    "subtopic_id": 1,
    "question": "Apa bahasa Surabaya dari “Terima Kasih”?",
    "option_a": "Sowan",
    "option_b": "Suwun",
    "option_c": "Sewu",
    "option_d": "Sawan",
    "answer": "B",
    "tips": "Di Bahasa Jawa sendiri \"Matur Suwun” biasanya diucapkan kepada orang yang lebih tua.",
    "clue_sound_filename": "terimakasih_sby"
  },
  {
    "id": 8,
    "subtopic_id": 1,
    "question": "Apa bahasa Surabaya dari “Teman”?",
    "option_a": "Konco",
    "option_b": "Konci",
    "option_c": "Kencur",
    "option_d": "Koco",
    "answer": "A",
    "tips": "",
    "clue_sound_filename": "teman_sby"
  },
  {
    "id": 9,
    "subtopic_id": 1,
    "question": "Apa bahasa Surabaya dari “Mana”?",
    "option_a": "Ende",
    "option_b": "Endul",
    "option_c": "Endi",
    "option_d": "Endak",
    "answer": "C",
    "tips": "",
    "clue_sound_filename": "mana_sby"
  },
  {
    "id": 10,
    "subtopic_id": 1,
    "question": "Apa bahasa Surabaya dari “Bukan”?",
    "option_a": "Gudhuk",
    "option_b": "Gaduk",
    "option_c": "Gadun",
    "option_d": "Garuk",
    "answer": "A",
    "tips": "",
    "clue_sound_filename": "bukan_sby"
  },
  {
    "id": 11,
    "subtopic_id": 4,
    "question": "Apa bahasa Surabaya dari “Beli”?",
    "option_a": "Teko",
    "option_b": "Turu",
    "option_c": "Tuku",
    "option_d": "Tako",
    "answer": "C",
    "tips": "",
    "clue_sound_filename": "beli_sby"
  },
  {
    "id": 12,
    "subtopic_id": 4,
    "question": "Apa bahasa Surabaya dari “Makan”?",
    "option_a": "Mangun",
    "option_b": "Mangan",
    "option_c": "Mireng",
    "option_d": "Mangap",
    "answer": "B",
    "tips": "",
    "clue_sound_filename": "makan_sby"
  },
  {
    "id": 13,
    "subtopic_id": 4,
    "question": "Apa bahasa Surabaya dari “Harga”?",
    "option_a": "Lego",
    "option_b": "Legi",
    "option_c": "Ragu",
    "option_d": "Rego",
    "answer": "D",
    "tips": "",
    "clue_sound_filename": "harga_sby"
  },
  {
    "id": 14,
    "subtopic_id": 4,
    "question": "Apa bahasa Surabaya dari “Berapa”?",
    "option_a": "Piro",
    "option_b": "Poro",
    "option_c": "Pari",
    "option_d": "Paru",
    "answer": "A",
    "tips": "Selain “Piro” ada kata “Pirang” yang digunakan jika ada kalimat setelahnya, contohnya “Pirang Dino?”",
    "clue_sound_filename": "berapa_sby"
  },
  {
    "id": 15,
    "subtopic_id": 4,
    "question": "Apa bahasa Surabaya dari “Ini”?",
    "option_a": "Iku",
    "option_b": "Iko",
    "option_c": "Ika",
    "option_d": "Iki",
    "answer": "D",
    "tips": "",
    "clue_sound_filename": "ini_sby"
  },
  {
    "id": 16,
    "subtopic_id": 4,
    "question": "Apa bahasa Surabaya dari “Cari”?",
    "option_a": "Korek",
    "option_b": "Molek",
    "option_c": "Golek",
    "option_d": "Gowo",
    "answer": "C",
    "tips": "",
    "clue_sound_filename": "cari_sby"
  },
  {
    "id": 17,
    "subtopic_id": 4,
    "question": "Apa bahasa Surabaya dari “Mau”?",
    "option_a": "Gelem",
    "option_b": "Gendis",
    "option_c": "Moco",
    "option_d": "Moro",
    "answer": "A",
    "tips": "",
    "clue_sound_filename": "mau_sby"
  },
  {
    "id": 18,
    "subtopic_id": 4,
    "question": "Apa bahasa Surabaya dari “Kembalian”?",
    "option_a": "Suwun",
    "option_b": "Susuk",
    "option_c": "Sowan",
    "option_d": "Sasuk",
    "answer": "B",
    "tips": "",
    "clue_sound_filename": "kembalian_sby"
  },
  {
    "id": 19,
    "subtopic_id": 4,
    "question": "Apa bahasa Surabaya dari “Uang”?",
    "option_a": "Dodol",
    "option_b": "Durung",
    "option_c": "Dhuwik",
    "option_d": "Dhuwur",
    "answer": "C",
    "tips": "Selain kata “Dhuwik” ada juga  kata 'Duit' yang memiliki arti sama.",
    "clue_sound_filename": "uang_sby"
  },
  {
    "id": 20,
    "subtopic_id": 4,
    "question": "Apa bahasa Surabaya dari “Seribu”?",
    "option_a": "Sewa",
    "option_b": "Suwe",
    "option_c": "Sawah",
    "option_d": "Sewu",
    "answer": "D",
    "tips": "",
    "clue_sound_filename": "seribu_sby"
  },
  {
    "id": 21,
    "subtopic_id": 7,
    "question": "Apa bahasa Surabaya dari “Juga”?",
    "option_a": "Susuk",
    "option_b": "Suwun",
    "option_c": "Sisan",
    "option_d": "Sowan",
    "answer": "C",
    "tips": "",
    "clue_sound_filename": "juga_sby"
  },
  {
    "id": 22,
    "subtopic_id": 7,
    "question": "Apa bahasa Surabaya dari “Dekat”?",
    "option_a": "Cerak",
    "option_b": "Ciduk",
    "option_c": "Ceblok",
    "option_d": "Cedek",
    "answer": "D",
    "tips": "",
    "clue_sound_filename": "dekat_sby"
  },
  {
    "id": 23,
    "subtopic_id": 7,
    "question": "Apa bahasa Surabaya dari “Baru saja”?",
    "option_a": "Sektas",
    "option_b": "Sowan",
    "option_c": "Sisan",
    "option_d": "Sekpas",
    "answer": "A",
    "tips": "",
    "clue_sound_filename": "barusaja_sby"
  },
  {
    "id": 24,
    "subtopic_id": 7,
    "question": "Apa bahasa Surabaya dari “Bagus”?",
    "option_a": "Anyar",
    "option_b": "Apik",
    "option_c": "Adoh",
    "option_d": "Asik",
    "answer": "B",
    "tips": "",
    "clue_sound_filename": "bagus_sby"
  },
  {
    "id": 25,
    "subtopic_id": 7,
    "question": "Apa bahasa Surabaya dari “Membaca”?",
    "option_a": "Macak",
    "option_b": "Mripat",
    "option_c": "Moco",
    "option_d": "Meso",
    "answer": "C",
    "tips": "",
    "clue_sound_filename": "membaca_sby"
  },
  {
    "id": 26,
    "subtopic_id": 7,
    "question": "Apa bahasa Surabaya dari “Nongkrong”?",
    "option_a": "Cingkruk",
    "option_b": "Cangkruk",
    "option_c": "Cingur",
    "option_d": "Cangking",
    "answer": "B",
    "tips": "",
    "clue_sound_filename": "nongkrong_sby"
  },
  {
    "id": 27,
    "subtopic_id": 7,
    "question": "Apa bahasa Surabaya dari “Kemana”?",
    "option_a": "Nangndi",
    "option_b": "Budhal",
    "option_c": "Nang kene",
    "option_d": "Nang kono",
    "answer": "A",
    "tips": "Kata “Nangdi” di Surabaya bisa juga diartikan “Kemana”.",
    "clue_sound_filename": "kemana_sby"
  },
  {
    "id": 28,
    "subtopic_id": 7,
    "question": "Apa bahasa Surabaya dari “Belum”?",
    "option_a": "Daring",
    "option_b": "Dolan",
    "option_c": "Durung",
    "option_d": "Dhuwit",
    "answer": "C",
    "tips": "",
    "clue_sound_filename": "belum_sby"
  },
  {
    "id": 29,
    "subtopic_id": 7,
    "question": "Apa bahasa Surabaya dari “Berangkat”?",
    "option_a": "Bedhil",
    "option_b": "Budhal",
    "option_c": "Badhe",
    "option_d": "Bolo",
    "answer": "B",
    "tips": "",
    "clue_sound_filename": "berangkat_sby"
  },
  {
    "id": 30,
    "subtopic_id": 7,
    "question": "Apa bahasa Surabaya dari “Tanya”?",
    "option_a": "Tokek",
    "option_b": "Tuku",
    "option_c": "Tibo",
    "option_d": "Takok",
    "answer": "D",
    "tips": "",
    "clue_sound_filename": "tanya_sby"
  },
  {
    "id": 31,
    "subtopic_id": 10,
    "question": "Apa bahasa Surabaya dari “Dapat”?",
    "option_a": "Ngantuk",
    "option_b": "Entuk",
    "option_c": "Antuk",
    "option_d": "Untuk",
    "answer": "B",
    "tips": "Selain kata “Entuk” ada juga  kata ‘Oleh' yang memiliki arti sama.",
    "clue_sound_filename": "dapat_sby"
  },
  {
    "id": 32,
    "subtopic_id": 10,
    "question": "Apa bahasa Surabaya dari “Besok”?",
    "option_a": "Susuk",
    "option_b": "Sasak",
    "option_c": "Sosok",
    "option_d": "Sesok",
    "answer": "D",
    "tips": "",
    "clue_sound_filename": "besok_sby"
  },
  {
    "id": 33,
    "subtopic_id": 10,
    "question": "Apa bahasa Surabaya dari “Susah”?",
    "option_a": "Angel",
    "option_b": "Arang",
    "option_c": "Abot",
    "option_d": "Asor",
    "answer": "A",
    "tips": "",
    "clue_sound_filename": "susah_sby"
  },
  {
    "id": 34,
    "subtopic_id": 10,
    "question": "Apa bahasa Surabaya dari “Bisa”?",
    "option_a": "Esok",
    "option_b": "Isok",
    "option_c": "Entuk",
    "option_d": "Isuk",
    "answer": "B",
    "tips": "",
    "clue_sound_filename": "bisa_sby"
  },
  {
    "id": 35,
    "subtopic_id": 10,
    "question": "Apa bahasa Surabaya dari “Untuk”?",
    "option_a": "Gowo",
    "option_b": "Gadhah",
    "option_c": "Gawe",
    "option_d": "Gudhuk",
    "answer": "C",
    "tips": "",
    "clue_sound_filename": "untuk_sby"
  },
  {
    "id": 36,
    "subtopic_id": 10,
    "question": "Apa bahasa Surabaya dari “Selesai”?",
    "option_a": "Melok",
    "option_b": "Mari",
    "option_c": "Mburi",
    "option_d": "Meri",
    "answer": "B",
    "tips": "",
    "clue_sound_filename": "selesai_sby"
  },
  {
    "id": 37,
    "subtopic_id": 10,
    "question": "Apa bahasa Surabaya dari “Mengerjakan”?",
    "option_a": "Nggarap",
    "option_b": "Nggowo",
    "option_c": "Ngenteni",
    "option_d": "Ngamuk",
    "answer": "A",
    "tips": "Di Surabaya kata “Nggarap” mempunyai persamaan kata lainnya yaitu “Ngerjakno” yang memiliki arti sama yaitu “Mengerjakan”",
    "clue_sound_filename": "mengerjakan_sby"
  },
  {
    "id": 38,
    "subtopic_id": 10,
    "question": "Apa bahasa Surabaya dari “Ikut”?",
    "option_a": "Mari",
    "option_b": "Mburi",
    "option_c": "Melok",
    "option_d": "Meri",
    "answer": "C",
    "tips": "Selain kata “Melok” di Surabaya terdapat juga kata “Melu” yang memiliki arti sama yaitu “Ikut”",
    "clue_sound_filename": "ikut_sby"
  },
  {
    "id": 39,
    "subtopic_id": 10,
    "question": "Apa bahasa Surabaya dari “Sendiri”?",
    "option_a": "Dowo",
    "option_b": "Dewe",
    "option_c": "Dhuwit",
    "option_d": "Dawet",
    "answer": "B",
    "tips": "",
    "clue_sound_filename": "sendiri_sby"
  },
  {
    "id": 40,
    "subtopic_id": 10,
    "question": "Apa bahasa Surabaya dari “Nanti”?",
    "option_a": "Wingi",
    "option_b": "Sesok",
    "option_c": "Saiki",
    "option_d": "Mengko",
    "answer": "D",
    "tips": "",
    "clue_sound_filename": "nanti_sby"
  },
  {
    "id": 41,
    "subtopic_id": 13,
    "question": "Apa bahasa Surabaya dari “Pergi”?",
    "option_a": "Luwe",
    "option_b": "Lungo",
    "option_c": "Langu",
    "option_d": "Lengo",
    "answer": "B",
    "tips": "",
    "clue_sound_filename": "pergi_sby"
  },
  {
    "id": 42,
    "subtopic_id": 13,
    "question": "Apa bahasa Surabaya dari “Hari”?",
    "option_a": "Dino",
    "option_b": "Dalan",
    "option_c": "Dulin",
    "option_d": "Durung",
    "answer": "A",
    "tips": "",
    "clue_sound_filename": "hari_sby"
  },
  {
    "id": 43,
    "subtopic_id": 13,
    "question": "Apa bahasa Surabaya dari “Banyak”?",
    "option_a": "Akas",
    "option_b": "Aneh",
    "option_c": "Kabeh",
    "option_d": "Akeh",
    "answer": "D",
    "tips": "",
    "clue_sound_filename": "banyak_sby"
  },
  {
    "id": 44,
    "subtopic_id": 13,
    "question": "Apa bahasa Surabaya dari “Dulu”?",
    "option_a": "Budal",
    "option_b": "Banyu",
    "option_c": "Biyen",
    "option_d": "Bayin",
    "answer": "C",
    "tips": "",
    "clue_sound_filename": "dulu_sby"
  },
  {
    "id": 45,
    "subtopic_id": 13,
    "question": "Apa bahasa Surabaya dari “Liburan”?",
    "option_a": "Preian",
    "option_b": "Parian",
    "option_c": "Lungoan",
    "option_d": "Paroan",
    "answer": "A",
    "tips": "",
    "clue_sound_filename": "liburan_sby"
  },
  {
    "id": 46,
    "subtopic_id": 13,
    "question": "Apa bahasa Surabaya dari “Tunggu”?",
    "option_a": "Entuk",
    "option_b": "Enggal",
    "option_c": "Eling",
    "option_d": "Enteni",
    "answer": "D",
    "tips": "",
    "clue_sound_filename": "tunggu_sby"
  },
  {
    "id": 47,
    "subtopic_id": 13,
    "question": "Apa bahasa Surabaya dari “Depan”?",
    "option_a": "Ngurep",
    "option_b": "Ngarep",
    "option_c": "Ngirup",
    "option_d": "Ngerap",
    "answer": "B",
    "tips": "",
    "clue_sound_filename": "depan_sby"
  },
  {
    "id": 48,
    "subtopic_id": 13,
    "question": "Apa bahasa Surabaya dari “Naik”?",
    "option_a": "Nampak",
    "option_b": "Namplek",
    "option_c": "Numplek",
    "option_d": "Numpak",
    "answer": "D",
    "tips": "Selain kata “Numpak” ada juga  kata 'Munggah' yang memiliki arti sama tetapi penggunaannya Berbeda, contohnya “Munggah Tangga”",
    "clue_sound_filename": "naik_sby"
  },
  {
    "id": 49,
    "subtopic_id": 13,
    "question": "Apa bahasa Surabaya dari “Main”?",
    "option_a": "Dino",
    "option_b": "Dalan",
    "option_c": "Dulin",
    "option_d": "Durung",
    "answer": "C",
    "tips": "",
    "clue_sound_filename": "main_sby"
  },
  {
    "id": 50,
    "subtopic_id": 13,
    "question": "Apa bahasa Surabaya dari “Sekarang”?",
    "option_a": "Sowan",
    "option_b": "Saiki",
    "option_c": "Siaka",
    "option_d": "Saiku",
    "answer": "B",
    "tips": "",
    "clue_sound_filename": "sekarang_sby"
  },
  {
    "id": 51,
    "subtopic_id": 16,
    "question": "Apa bahasa Surabaya dari “Beruntung”?",
    "option_a": "Baji",
    "option_b": "Bojo",
    "option_c": "Bajo",
    "option_d": "Bejo",
    "answer": "D",
    "tips": "",
    "clue_sound_filename": "beruntung_sby"
  },
  {
    "id": 52,
    "subtopic_id": 16,
    "question": "Apa bahasa Surabaya dari “Sewa”?",
    "option_a": "Sawah",
    "option_b": "Sewo",
    "option_c": "Sowo",
    "option_d": "Sawo",
    "answer": "B",
    "tips": "",
    "clue_sound_filename": "sewa_sby"
  },
  {
    "id": 53,
    "subtopic_id": 16,
    "question": "Apa bahasa Surabaya dari “Badan”?",
    "option_a": "Awak",
    "option_b": "Anak",
    "option_c": "Uwak",
    "option_d": "Iwak",
    "answer": "A",
    "tips": "Di Surabaya kata “Awak” berarti “Badan”, tetapi ada satu kata lagi yaitu “Awakmu” yang memilki arti “Kamu/Dirimu”",
    "clue_sound_filename": "badan_sby"
  },
  {
    "id": 54,
    "subtopic_id": 16,
    "question": "Apa bahasa Surabaya dari “Masuk”?",
    "option_a": "Maneh",
    "option_b": "Mundhut",
    "option_c": "Mlebu",
    "option_d": "Metu",
    "answer": "C",
    "tips": "",
    "clue_sound_filename": "masuk_sby"
  },
  {
    "id": 55,
    "subtopic_id": 16,
    "question": "Apa bahasa Surabaya dari “Karena”?",
    "option_a": "Merto",
    "option_b": "Mergo",
    "option_c": "Marto",
    "option_d": "Morga",
    "answer": "B",
    "tips": "",
    "clue_sound_filename": "karena_sby"
  },
  {
    "id": 56,
    "subtopic_id": 16,
    "question": "Apa bahasa Surabaya dari “Sepakbola”?",
    "option_a": "Bolaan",
    "option_b": "Bandulan",
    "option_c": "Bolbolan",
    "option_d": "Balbalan",
    "answer": "D",
    "tips": "",
    "clue_sound_filename": "sepakbola_sby"
  },
  {
    "id": 57,
    "subtopic_id": 16,
    "question": "Apa bahasa Surabaya dari “Lagi”?",
    "option_a": "Maneh",
    "option_b": "Minah",
    "option_c": "Menek",
    "option_d": "Minggat",
    "answer": "A",
    "tips": "",
    "clue_sound_filename": "lagi_sby"
  },
  {
    "id": 58,
    "subtopic_id": 16,
    "question": "Apa bahasa Surabaya dari “Jatuh”?",
    "option_a": "Turu",
    "option_b": "Tibo",
    "option_c": "Tuku",
    "option_d": "Tabu",
    "answer": "B",
    "tips": "",
    "clue_sound_filename": "jatuh_sby"
  },
  {
    "id": 59,
    "subtopic_id": 16,
    "question": "Apa bahasa Surabaya dari “Kaki”?",
    "option_a": "Sakal",
    "option_b": "Cakil",
    "option_c": "Sikil",
    "option_d": "Cikil",
    "answer": "C",
    "tips": "",
    "clue_sound_filename": "kaki_sby"
  },
  {
    "id": 60,
    "subtopic_id": 16,
    "question": "Apa bahasa Surabaya dari “Pagi”?",
    "option_a": "Iling",
    "option_b": "Sesok",
    "option_c": "Isok",
    "option_d": "Isuk",
    "answer": "D",
    "tips": "",
    "clue_sound_filename": "pagi_sby"
  }
]
