[
  {
    "id": 1,
    "name": "Kata ganti orang",
    "image_filename": "Introduction_Circle"
  },
  {
    "id": 2,
    "name": "Kata Hubung",
    "image_filename": "Word_Circle"
  },
  {
    "id": 3,
    "name": "Tempat",
    "image_filename": "Pinpoint_Circle"
  },
  {
    "id": 4,
    "name": "Ekspresi",
    "image_filename": "Expression_Circle"
  },
  {
    "id": 5,
    "name": "Waktu",
    "image_filename": "Time_Circle"
  },
  {
    "id": 6,
    "name": "Aktivitas",
    "image_filename": "Activity_Circle"
  },
  {
    "id": 7,
    "name": "Belanja",
    "image_filename": "Cart_Circle"
  },
  {
    "id": 8,
    "name": "Bilangan",
    "image_filename": "Number_Circle"
  },
  {
    "id": 9,
    "name": "Liburan",
    "image_filename": "Holiday_Circle"
  },
  {
    "id": 10,
    "name": "Olahraga",
    "image_filename": "Sport_Circle"
  }
]
